NBA Open Shot Project
…
## `summarise()` has grouped output by 'bbr_team_id', 'bbr_game_id'. You can
## override using the `.groups` argument.

# Highest open shot percentage
league_offense_summary %>%
  group_by(bbr_team_id) %>%
  summarise(
    open_shot_pct = mean(open_shot_pct)
  ) %>%
  arrange(desc(open_shot_pct))

## # A tibble: 30 x 2
##    bbr_team_id open_shot_pct
##    <chr>               <dbl>
##  1 LAC                 0.622
##  2 POR                 0.618
##  3 DAL                 0.596
##  4 GSW                 0.586
##  5 ATL                 0.582
##  6 PHO                 0.580
##  7 NYK                 0.574
##  8 MIL                 0.573
##  9 MIA                 0.567
## 10 WAS                 0.551
## # ... with 20 more rows
## # i Use `print(n = ...)` to see more rows

# Most predicted open shots per game
league_offense_summary %>%
  group_by(bbr_team_id) %>%
  summarise(
    open_shots_pg = mean(pred_open_shots)
  ) %>%
  arrange(desc(open_shots_pg))

## # A tibble: 30 x 2
##    bbr_team_id open_shots_pg
##    <chr>               <dbl>
##  1 POR                  53.1
##  2 LAC                  52.0
##  3 GSW                  50.9
##  4 DAL                  50.9
##  5 PHO                  50.3
##  6 BOS                  47.6
##  7 NYK                  47.5
##  8 ATL                  47.1
##  9 MIL                  46.7
## 10 OKC                  46.1
## # ... with 20 more rows
## # i Use `print(n = ...)` to see more rows
…
## `summarise()` has grouped output by 'bbr_opp_team_id', 'bbr_game_id'. You can
## override using the `.groups` argument.

# Get defenses with the fewest percent of open shots allowed
league_defense_summary %>%
  group_by(team) %>%
  summarise(
    opp_open_shot_pct = mean(opp_open_shot_pct)
  ) %>%
  arrange(opp_open_shot_pct)

## # A tibble: 30 x 2
##    team  opp_open_shot_pct
##    <chr>             <dbl>
##  1 SAS               0.484
##  2 PHO               0.497
##  3 NOH               0.512
##  4 CHI               0.512
##  5 POR               0.516
##  6 MIL               0.519
##  7 IND               0.526
##  8 GSW               0.528
##  9 ATL               0.529
## 10 BOS               0.529
## # ... with 20 more rows
## # i Use `print(n = ...)` to see more rows

# Get defenses with the fewest open shots allowed per game
league_defense_summary %>%
  group_by(team) %>%
  summarise(
    opp_open_shot_pg = mean(pred_opp_open_shots)
  ) %>%
  arrange(opp_open_shot_pg)

## # A tibble: 30 x 2
##    team  opp_open_shot_pg
##    <chr>            <dbl>
##  1 SAS               40.4
##  2 MIA               42.0
##  3 PHO               42.4
##  4 NOH               42.5
##  5 MIL               42.5
##  6 UTA               43.0
##  7 IND               43.3
##  8 MEM               43.6
##  9 ATL               44.2
## 10 NYK               44.3
## # ... with 20 more rows
## # i Use `print(n = ...)` to see more rows
…
## `summarise()` has grouped output by 'player_id'. You can override using the
## `.groups` argument.

## # A tibble: 271 x 5
## # Groups:   player_id [271]
##    player_id player_name       fg   fga open_fg_pct
##        <dbl> <chr>          <dbl> <int>       <dbl>
##  1    201599 deandre jordan    89   108       0.824
##  2    203486 mason plumlee     68    88       0.773
##  3    202334 ed davis          45    59       0.763
##  4    203497 rudy gobert       38    51       0.745
##  5      2199 tyson chandler    83   115       0.722
##  6    203092 tyler zeller      75   109       0.688
##  7    203083 andre drummond    81   125       0.648
##  8      2365 chris andersen    34    53       0.642
##  9    202328 greg monroe       69   110       0.627
## 10    101161 amir johnson      77   125       0.616
## # ... with 261 more rows
## # i Use `print(n = ...)` to see more rows
…
## `summarise()` has grouped output by 'player_id'. You can override using the
## `.groups` argument.

## # A tibble: 268 x 5
## # Groups:   player_id [268]
##    player_id player_name          fg   fga open_fg_pct
##        <dbl> <chr>             <dbl> <int>       <dbl>
##  1    201599 deandre jordan      191   285       0.670
##  2    201949 james johnson       132   198       0.667
##  3      2199 tyson chandler      147   225       0.653
##  4    203497 rudy gobert         129   216       0.597
##  5    203932 aaron gordon         35    59       0.593
##  6    201582 alexis ajinca        72   122       0.590
##  7    202324 derrick favors      250   426       0.587
##  8      2403 nene hilario        138   239       0.577
##  9    202685 jonas valanciunas   222   389       0.571
## 10    202334 ed davis            166   291       0.570
## # ... with 258 more rows
## # i Use `print(n = ...)` to see more rows
…
